Exploring the abacus dataset (Barner, et al. 2018)
…
* The `abacus_data` data frame contains 2,094 rows - one row for each subject-task-time combination. 

---
* For example, the following code returns a data fram with ONE row for each subject id. 

--

```r
abacus_data %>%
 distinct(subid)
```

```
## # A tibble: 188 x 1
##    subid   
##    <chr>   
##  1 S1-02-02
##  2 S1-02-03
##  3 S1-02-08
##  4 S1-02-15
##  5 S1-02-17
##  6 S1-03-04
##  7 S1-03-05
##  8 S1-03-06
##  9 S1-03-09
## 10 S1-03-14
## # … with 178 more rows
```

---

* The following code returns a data frame with ONE row for each subject id and time. 

--

```r
abacus_data %>%
 distinct(subid, time)
```

```
## # A tibble: 349 x 2
##    subid    time 
##    <chr>    <chr>
##  1 S1-02-02 Pre  
##  2 S1-02-03 Pre  
##  3 S1-02-03 Post 
##  4 S1-02-08 Pre  
##  5 S1-02-08 Post 
##  6 S1-02-15 Post 
##  7 S1-02-17 Pre  
##  8 S1-02-17 Post 
##  9 S1-03-04 Post 
## 10 S1-03-05 Post 
## # … with 339 more rows
```

---

* You can keep the other variables in the data frame by adding the argument `.keep_all = T` to `distinct()`. 

--

```r
abacus_data %>%
*distinct(subid, time, .keep_all = T)
```

```
## # A tibble: 349 x 8
##    subid    class_num grade       group          year time  task        score
##    <chr>    <chr>     <chr>       <chr>         <dbl> <chr> <chr>       <dbl>
##  1 S1-02-02 S1_02     First Grade Control        2015 Pre   Place Value  0   
##  2 S1-02-03 S1_02     First Grade Control        2015 Pre   Place Value  0   
##  3 S1-02-03 S1_02     First Grade Control        2016 Post  Place Value  0.36
##  4 S1-02-08 S1_02     First Grade Control        2015 Pre   Place Value  0   
##  5 S1-02-08 S1_02     First Grade Control        2016 Post  Place Value  0.36
##  6 S1-02-15 S1_02     First Grade Control        2016 Post  Place Value  0.64
##  7 S1-02-17 S1_02     First Grade Control        2015 Pre   Place Value  0.09
##  8 S1-02-17 S1_02     First Grade Control        2016 Post  Place Value NA   
##  9 S1-03-04 S1_03     First Grade Mental Abacus  2016 Post  Place Value  0.55
## 10 S1-03-05 S1_03     First Grade Mental Abacus  2016 Post  Place Value  0.91
## # … with 339 more rows
```
…
--

We neet to **`group_by`** task, grade, and time, and then **`summarize`.**
--

```r
distribution_means <- abacus_data %>%
* group_by(task, time, grade) %>%
* summarize(dist_mean = mean(score, na.rm=TRUE))
```

--

```
## # A tibble: 24 x 4
## # Groups:   task, time [12]
##    task             time  grade        dist_mean
##    <chr>            <chr> <chr>            <dbl>
##  1 Arithmetic       Post  First Grade     0.179 
##  2 Arithmetic       Post  Second Grade    0.279 
##  3 Arithmetic       Pre   First Grade     0.0448
##  4 Arithmetic       Pre   Second Grade    0.137 
##  5 Go/No Go         Post  First Grade     0.762 
##  6 Go/No Go         Post  Second Grade    0.820 
##  7 Go/No Go         Pre   First Grade     0.730 
##  8 Go/No Go         Pre   Second Grade    0.806 
##  9 Matrix Reasoning Post  First Grade     0.305 
## 10 Matrix Reasoning Post  Second Grade    0.392 
## # … with 14 more rows
```
…
Let's look at this just for the first grade group, and only the arithmetic task and spatial working memory tasks.

--

How could subset to these rows?

--

```r
abacus_data
```

```
## # A tibble: 2,094 x 8
##    subid    class_num grade       group          year time  task        score
##    <chr>    <chr>     <chr>       <chr>         <dbl> <chr> <chr>       <dbl>
##  1 S1-02-02 S1_02     First Grade Control        2015 Pre   Place Value  0   
##  2 S1-02-03 S1_02     First Grade Control        2015 Pre   Place Value  0   
##  3 S1-02-03 S1_02     First Grade Control        2016 Post  Place Value  0.36
##  4 S1-02-08 S1_02     First Grade Control        2015 Pre   Place Value  0   
##  5 S1-02-08 S1_02     First Grade Control        2016 Post  Place Value  0.36
##  6 S1-02-15 S1_02     First Grade Control        2016 Post  Place Value  0.64
##  7 S1-02-17 S1_02     First Grade Control        2015 Pre   Place Value  0.09
##  8 S1-02-17 S1_02     First Grade Control        2016 Post  Place Value NA   
##  9 S1-03-04 S1_03     First Grade Mental Abacus  2016 Post  Place Value  0.55
## 10 S1-03-05 S1_03     First Grade Mental Abacus  2016 Post  Place Value  0.91
## # … with 2,084 more rows
```
---

```r
first_grade_abacus_data <- abacus_data %>%
*           filter(grade == "First Grade",
*                  task %in% c("Spatial WM", "Arithmetic"))
```

```r
first_grade_abacus_data
```

```
## # A tibble: 278 x 8
##    subid    class_num grade       group          year time  task       score
##    <chr>    <chr>     <chr>       <chr>         <dbl> <chr> <chr>      <dbl>
##  1 S1-02-02 S1_02     First Grade Control        2015 Pre   Arithmetic  0   
##  2 S1-02-03 S1_02     First Grade Control        2015 Pre   Arithmetic  0   
##  3 S1-02-03 S1_02     First Grade Control        2016 Post  Arithmetic  0.25
##  4 S1-02-08 S1_02     First Grade Control        2015 Pre   Arithmetic  0   
##  5 S1-02-08 S1_02     First Grade Control        2016 Post  Arithmetic  0.08
##  6 S1-02-15 S1_02     First Grade Control        2016 Post  Arithmetic  0.1 
##  7 S1-02-17 S1_02     First Grade Control        2015 Pre   Arithmetic  0.17
##  8 S1-02-17 S1_02     First Grade Control        2016 Post  Arithmetic NA   
##  9 S1-03-04 S1_03     First Grade Mental Abacus  2016 Post  Arithmetic  0.17
## 10 S1-03-05 S1_03     First Grade Mental Abacus  2016 Post  Arithmetic  0.33
## # … with 268 more rows
```
…
