Midterm - solutions
…
 [e] 
 If we got a negative effect size, this would mean that the mean looking time was longer for adult directed speech than with infant directed speech (direction of difference is flipped). 
 
 Cohens d = (mean1 - mean2)/standard_deviation 
 You can choose whether an effect is positive or negative based on how you define mean1 and mean2. In general, you want to define which is mean1 and which is mean2 so that you get a postive effect size if your hypothesis is correct. In this case, the hypothesis is Infants prefer infant directed speech. So wed want to define mean1 to be mean looking time in the IDS condition and mean2 to to be mean looking time in the adult directed speech condition. Defined this way, we will get a postive value when mean1 > mean2 (i.e.when infants look longer at IDS relative to ADS).

How are the functions filter and distinct similar? How are they different? Use data from the Many Babies project to demonstrate your answer. Your answer should involve both code and a clear explanation.

filter and distinct are similar in that they both pull observations (rows) from your dataset. They are different in that while filter pulls all observations meeting a certain criteria that you give, distinct pulls one row per unique or distinct instance of the variable you give it. For example:

many_babies_data %>% 
  filter(lab== "babylabnijmegen")

## # A tibble: 110 x 5
##    lab             subid   age_days condition mean_looking_time
##    <chr>           <chr>      <dbl> <chr>                 <dbl>
##  1 babylabnijmegen ba0169       245 ADS                    8.38
##  2 babylabnijmegen ba0169       245 IDS                    7.28
##  3 babylabnijmegen ba01912      323 ADS                    5.28
##  4 babylabnijmegen ba01912      323 IDS                    5.21
##  5 babylabnijmegen ba0269       206 ADS                    5.20
##  6 babylabnijmegen ba0269       206 IDS                    9.33
##  7 babylabnijmegen ba02912      335 ADS                    9.32
##  8 babylabnijmegen ba02912      335 IDS                    9.43
##  9 babylabnijmegen ba0369       257 ADS                    8.42
## 10 babylabnijmegen ba0369       257 IDS                    7.35
## #  with 100 more rows
…
